15:19:42 134	Android开发工具 v2.4.1.0 for android start run
15:20:43 378	Layer<3-1-1>:测试设备开始
15:20:43 385	Layer<3-1-1>:测试设备成功
15:20:43 389	Layer<3-1-1>:校验芯片开始
15:20:43 393	Layer<3-1-1>:校验芯片成功
15:20:43 397	Layer<3-1-1>:获取FlashInfo开始
15:20:43 400	<LAYER 3-1-1> INFO:FlashInfo: 00 00 E9 00 00 04 04 00 28 00 01
15:20:43 402	<LAYER 3-1-1> INFO:GetFlashInfo-->Emmc storage.
15:20:43 406	Layer<3-1-1>:获取FlashInfo成功
15:20:43 410	Layer<3-1-1>:准备IDB开始
15:20:43 413	<LAYER 3-1-1> INFO:CS(1)		(7456MB)		(SAMSUNG)
15:20:43 423	Layer<3-1-1>:准备IDB成功
15:20:43 427	Layer<3-1-1>:下载IDB开始
15:20:43 583	Layer<3-1-1>:下载IDB成功
15:20:43 587	Layer<3-1-1>:重启设备开始
15:20:44 591	Layer<3-1-1>:重启设备成功
15:20:44 595	Layer<3-1-1>:等待Loader开始
15:20:46 202	Layer<3-1-1>:等待Loader成功
15:20:46 207	Layer<3-1-1>:测试设备开始
15:20:46 211	Layer<3-1-1>:测试设备成功
15:20:46 217	Layer<3-1-1>: Download parameter...
15:20:46 261	Layer<3-1-1>: Download uboot...
15:20:46 889	Layer<3-1-1>: Download misc...
15:20:46 911	Layer<3-1-1>: Download resource...
15:20:46 953	Layer<3-1-1>: Download kernel...
15:20:47 722	Layer<3-1-1>: Download boot...
15:20:47 904	Layer<3-1-1>: Download recovery...
15:20:48 420	Layer<3-1-1>: DownloadSparse system...
15:21:41 454	Layer<3-1-1>: RunProc is ending, ret=1
15:31:33 024	Layer<3-1-1>:测试设备开始
15:31:33 032	Layer<3-1-1>:测试设备成功
15:31:33 037	Layer<3-1-1>:校验芯片开始
15:31:33 043	Layer<3-1-1>:校验芯片成功
15:31:33 049	Layer<3-1-1>:获取FlashInfo开始
15:31:33 053	<LAYER 3-1-1> INFO:FlashInfo: 00 00 E9 00 00 04 04 00 28 00 01
15:31:33 057	<LAYER 3-1-1> INFO:GetFlashInfo-->Emmc storage.
15:31:33 063	Layer<3-1-1>:获取FlashInfo成功
15:31:33 068	Layer<3-1-1>:准备IDB开始
15:31:33 072	<LAYER 3-1-1> INFO:CS(1)		(7456MB)		(SAMSUNG)
15:31:33 085	Layer<3-1-1>:准备IDB成功
15:31:33 091	Layer<3-1-1>:下载IDB开始
15:31:33 252	Layer<3-1-1>:下载IDB成功
15:31:33 257	Layer<3-1-1>:重启设备开始
15:31:34 261	Layer<3-1-1>:重启设备成功
15:31:34 266	Layer<3-1-1>:等待Loader开始
15:31:35 868	Layer<3-1-1>:等待Loader成功
15:31:35 873	Layer<3-1-1>:测试设备开始
15:31:35 878	Layer<3-1-1>:测试设备成功
15:31:35 883	Layer<3-1-1>: Download parameter...
15:31:35 927	Layer<3-1-1>: Download uboot...
15:31:36 318	Layer<3-1-1>: Download misc...
15:31:36 341	Layer<3-1-1>: Download resource...
15:31:36 381	Layer<3-1-1>: Download kernel...
15:31:37 134	Layer<3-1-1>: Download boot...
15:31:37 288	Layer<3-1-1>: Download recovery...
15:31:37 790	Layer<3-1-1>: DownloadSparse system...
15:32:23 945	Layer<3-1-1>: RunProc is ending, ret=1
15:56:52 474	Layer<3-1-1>:测试设备开始
15:56:52 478	Layer<3-1-1>:测试设备成功
15:56:52 484	Layer<3-1-1>: Download boot...
15:56:52 656	Layer<3-1-1>: Download recovery...
15:56:53 115	Layer<3-1-1>: DownloadSparse system...
15:57:41 312	Layer<3-1-1>: RunProc is ending, ret=1
16:21:48 416	Layer<3-1-1>:测试设备开始
16:21:48 423	Layer<3-1-1>:测试设备成功
16:21:48 430	Layer<3-1-1>: Download resource...
16:21:48 488	Layer<3-1-1>: Download kernel...
16:21:49 170	Layer<3-1-1>: RunProc is ending, ret=1
16:23:32 049	Layer<3-1-1>:测试设备开始
16:23:32 059	Layer<3-1-1>:测试设备成功
16:23:32 067	Layer<3-1-1>: Download resource...
16:23:32 127	Layer<3-1-1>: Download kernel...
16:23:32 823	Layer<3-1-1>: RunProc is ending, ret=1
16:24:39 540	Layer<>: RunProc is ending, ret=0
16:43:38 526	Layer<3-1-1>:下载Boot开始
16:43:40 711	Layer<3-1-1>:下载Boot成功
16:43:40 717	Layer<3-1-1>:等待Maskrom开始
16:43:41 663	Layer<3-1-1>:等待Maskrom成功
16:43:41 668	Layer<3-1-1>:测试设备开始
16:43:41 681	Layer<3-1-1>:测试设备成功
16:43:41 687	Layer<3-1-1>:校验芯片开始
16:43:41 699	Layer<3-1-1>:校验芯片成功
16:43:41 741	Layer<3-1-1>:获取FlashInfo开始
16:43:41 751	<LAYER 3-1-1> INFO:FlashInfo: 00 00 76 00 00 04 04 00 28 00 01
16:43:41 755	<LAYER 3-1-1> INFO:GetFlashInfo-->Emmc storage.
16:43:41 812	Layer<3-1-1>:获取FlashInfo成功
16:43:41 851	Layer<3-1-1>:准备IDB开始
16:43:41 856	<LAYER 3-1-1> INFO:CS(1)		(3776MB)		(SAMSUNG)
16:43:41 944	<LAYER 3-1-1> INFO:FindBackupBuffer-->No Found Tag
16:43:41 951	<LAYER 3-1-1> INFO:FindBackupBuffer-->No Found Tag
16:43:41 957	<LAYER 3-1-1> INFO:FindBackupBuffer-->No Found Tag
16:43:41 965	<LAYER 3-1-1> INFO:FindBackupBuffer-->No Found Tag
16:43:41 969	<LAYER 3-1-1> INFO:FindBackupBuffer-->No Found Tag
16:43:41 976	Layer<3-1-1>:准备IDB成功
16:43:41 983	Layer<3-1-1>:下载IDB开始
16:43:42 249	Layer<3-1-1>:下载IDB成功
16:43:42 254	Layer<3-1-1>:重启设备开始
16:43:43 270	Layer<3-1-1>:重启设备成功
16:43:43 295	Layer<3-1-1>:等待Loader开始
16:43:45 053	Layer<3-1-1>:等待Loader成功
16:43:45 133	Layer<3-1-1>:测试设备开始
16:43:45 167	Layer<3-1-1>:测试设备成功
16:43:45 178	Layer<3-1-1>: Download parameter...
16:43:45 256	Layer<3-1-1>: Download uboot...
16:43:46 199	Layer<3-1-1>: Download misc...
16:43:46 226	Layer<3-1-1>: Download resource...
16:43:46 314	Layer<3-1-1>: Download kernel...
16:43:48 166	Layer<3-1-1>: Download boot...
16:43:48 541	Layer<3-1-1>: Download recovery...
16:43:49 694	Layer<3-1-1>: DownloadSparse system...
16:45:59 017	Layer<3-1-1>: RunProc is ending, ret=1
17:24:52 551	Layer<3-1-1>:测试设备开始
17:24:52 603	Layer<3-1-1>:测试设备成功
17:24:52 641	Layer<3-1-1>: Download resource...
17:24:52 719	Layer<3-1-1>: RunProc is ending, ret=1
17:34:43 788	Layer<3-1-1>:测试设备开始
17:34:43 794	Layer<3-1-1>:测试设备成功
17:34:43 859	Layer<3-1-1>: Download resource...
17:34:43 924	Layer<3-1-1>: RunProc is ending, ret=1
17:36:27 501	Layer<3-1-1>:测试设备开始
17:36:27 507	Layer<3-1-1>:测试设备成功
17:36:27 515	Layer<3-1-1>: Download resource...
17:36:27 584	Layer<3-1-1>: RunProc is ending, ret=1
17:47:09 029	Layer<3-1-1>:测试设备开始
17:47:09 038	Layer<3-1-1>:测试设备成功
17:47:09 048	Layer<3-1-1>: Download resource...
17:47:09 102	Layer<3-1-1>: RunProc is ending, ret=1
17:52:11 840	Layer<3-1-1>:测试设备开始
17:52:11 853	Layer<3-1-1>:测试设备成功
17:52:11 865	Layer<3-1-1>: Download resource...
17:52:11 920	Layer<3-1-1>: RunProc is ending, ret=1
