17:59:39 240	Layer<3-1-1>:测试设备开始
17:59:39 268	Layer<3-1-1>:测试设备成功
17:59:39 276	Layer<3-1-1>:校验芯片开始
17:59:39 285	Layer<3-1-1>:校验芯片成功
17:59:39 291	Layer<3-1-1>:获取FlashInfo开始
17:59:39 295	<LAYER 3-1-1> INFO:FlashInfo: 00 00 E9 00 00 04 04 00 28 00 01
17:59:39 299	<LAYER 3-1-1> INFO:GetFlashInfo-->Emmc storage.
17:59:39 305	Layer<3-1-1>:获取FlashInfo成功
17:59:39 310	Layer<3-1-1>:准备IDB开始
17:59:39 344	<LAYER 3-1-1> INFO:CS(1)		(7456MB)		(SAMSUNG)
17:59:39 356	Layer<3-1-1>:准备IDB成功
17:59:39 362	Layer<3-1-1>:下载IDB开始
17:59:40 528	Layer<3-1-1>:下载IDB成功
17:59:40 540	Layer<3-1-1>:重启设备开始
17:59:41 564	Layer<3-1-1>:重启设备成功
17:59:41 576	Layer<3-1-1>:等待Loader开始
17:59:42 945	Layer<3-1-1>:等待Loader成功
17:59:42 957	Layer<3-1-1>:测试设备开始
17:59:42 977	Layer<3-1-1>:测试设备成功
17:59:42 986	Layer<3-1-1>:下载固件开始
17:59:43 034	<LAYER 3-1-1> INFO:Start download image,total=425688736,band=64
17:59:43 095	<LAYER 3-1-1> INFO:Start to download uboot,offset=0x2000,size=4194304
17:59:43 328	<LAYER 3-1-1> INFO:Start to download misc,offset=0x4000,size=49152
17:59:43 341	<LAYER 3-1-1> INFO:Start to download resource,offset=0x6000,size=265216
17:59:43 361	<LAYER 3-1-1> INFO:Start to download kernel,offset=0xe000,size=7622548
17:59:43 791	<LAYER 3-1-1> INFO:Start to download boot,offset=0x14000,size=1718404
17:59:43 886	<LAYER 3-1-1> INFO:Start to download recovery,offset=0x1a000,size=10207232
17:59:44 454	<LAYER 3-1-1> INFO:Start to download system,offset=0x94000,size=401620992
18:00:05 520	<LAYER 3-1-1> INFO:Start to check uboot,offset=0x2000,size=4194304
18:00:05 654	<LAYER 3-1-1> INFO:Start to check misc,offset=0x4000,size=49152
18:00:05 665	<LAYER 3-1-1> INFO:Start to check resource,offset=0x6000,size=265216
18:00:05 681	<LAYER 3-1-1> INFO:Start to check kernel,offset=0xe000,size=7622548
18:00:05 920	<LAYER 3-1-1> INFO:Start to check boot,offset=0x14000,size=1718404
18:00:05 979	<LAYER 3-1-1> INFO:Start to check recovery,offset=0x1a000,size=10207232
18:00:06 282	<LAYER 3-1-1> INFO:Start to check system,offset=0x94000,size=401620992
18:00:19 419	Layer<3-1-1>:下载固件成功
18:00:19 426	Layer<3-1-1>:重启设备开始
18:00:20 430	Layer<3-1-1>:重启设备成功
18:01:57 655	Layer<3-1-1>:测试设备开始
18:01:57 678	Layer<3-1-1>:测试设备成功
18:01:57 706	Layer<3-1-1>: Download resource...
18:01:57 751	Layer<3-1-1>: RunProc is ending, ret=1
18:02:50 643	Layer<3-1-1>:测试设备开始
18:02:50 648	Layer<3-1-1>:测试设备成功
18:02:50 655	Layer<3-1-1>: Download resource...
18:02:50 697	Layer<3-1-1>: RunProc is ending, ret=1
18:04:13 369	Layer<3-1-1>:测试设备开始
18:04:13 374	Layer<3-1-1>:测试设备成功
18:04:13 381	Layer<3-1-1>: Download resource...
18:04:13 434	Layer<3-1-1>: RunProc is ending, ret=1
18:05:29 871	Layer<3-1-1>:测试设备开始
18:05:29 879	Layer<3-1-1>:测试设备成功
18:05:29 888	Layer<3-1-1>: Download resource...
18:05:29 931	Layer<3-1-1>: RunProc is ending, ret=1
18:08:37 757	Layer<3-1-1>:测试设备开始
18:08:37 765	Layer<3-1-1>:测试设备成功
18:08:37 775	Layer<3-1-1>: Download resource...
18:08:37 824	Layer<3-1-1>: RunProc is ending, ret=1
18:09:57 380	Layer<3-1-1>:测试设备开始
18:09:57 384	Layer<3-1-1>:测试设备成功
18:09:57 390	Layer<3-1-1>: Download resource...
18:09:57 431	Layer<3-1-1>: RunProc is ending, ret=1
18:11:05 327	Info:RunExe->cmd=netstat -ano
18:11:08 095	Info:RunExe->cmd="\\192.168.1.186\rp-share\bill\3128\test\rk312x_mid_android-7.1\RKTools\windows\AndroidTool\AndroidTool_Release_v2.41\bin\adb.exe" -s YI0NGZQH2B reboot bootloader
18:11:12 585	* daemon not running. starting it now on port 5037 *
* daemon started successfully *
error: device not found

18:11:13 589	Info:RunExe->cmd="\\192.168.1.186\rp-share\bill\3128\test\rk312x_mid_android-7.1\RKTools\windows\AndroidTool\AndroidTool_Release_v2.41\bin\adb.exe" reboot bootloader
18:11:15 103	Layer<3-1-1>:测试设备开始
18:11:15 108	Layer<3-1-1>:测试设备成功
18:11:15 117	Layer<3-1-1>: Download resource...
18:11:15 167	Layer<3-1-1>: RunProc is ending, ret=1
18:13:11 130	Layer<3-1-1>:测试设备开始
18:13:11 139	Layer<3-1-1>:测试设备成功
18:13:11 148	Layer<3-1-1>: Download resource...
18:13:11 194	Layer<3-1-1>: RunProc is ending, ret=1
18:14:45 043	Layer<3-1-1>:测试设备开始
18:14:45 051	Layer<3-1-1>:测试设备成功
18:14:45 060	Layer<3-1-1>: Download resource...
18:14:45 113	Layer<3-1-1>: RunProc is ending, ret=1
18:47:20 202	Layer<3-1-1>:测试设备开始
18:47:20 207	Layer<3-1-1>:测试设备成功
18:47:20 213	Layer<3-1-1>: Download resource...
18:47:20 269	Layer<3-1-1>: RunProc is ending, ret=1
19:03:56 471	Layer<3-1-1>:测试设备开始
19:03:56 477	Layer<3-1-1>:测试设备成功
19:03:56 481	Layer<3-1-1>:校验芯片开始
19:03:56 488	Layer<3-1-1>:校验芯片成功
19:03:56 491	Layer<3-1-1>:获取FlashInfo开始
19:03:56 493	<LAYER 3-1-1> INFO:FlashInfo: 00 00 E9 00 00 04 04 00 28 00 01
19:03:56 495	<LAYER 3-1-1> INFO:GetFlashInfo-->Emmc storage.
19:03:56 499	Layer<3-1-1>:获取FlashInfo成功
19:03:56 502	Layer<3-1-1>:准备IDB开始
19:03:56 504	<LAYER 3-1-1> INFO:CS(1)		(7456MB)		(SAMSUNG)
19:03:56 513	Layer<3-1-1>:准备IDB成功
19:03:56 516	Layer<3-1-1>:下载IDB开始
19:03:56 660	Layer<3-1-1>:下载IDB成功
19:03:56 666	Layer<3-1-1>:重启设备开始
19:03:57 672	Layer<3-1-1>:重启设备成功
19:03:57 685	Layer<3-1-1>:等待Loader开始
19:04:00 083	Layer<3-1-1>:等待Loader成功
19:04:00 087	Layer<3-1-1>:测试设备开始
19:04:00 092	Layer<3-1-1>:测试设备成功
19:04:00 096	Layer<3-1-1>:下载固件开始
19:04:00 100	<LAYER 3-1-1> INFO:Start download image,total=425688224,band=64
19:04:00 122	<LAYER 3-1-1> INFO:Start to download uboot,offset=0x2000,size=4194304
19:04:00 350	<LAYER 3-1-1> INFO:Start to download misc,offset=0x4000,size=49152
19:04:00 363	<LAYER 3-1-1> INFO:Start to download resource,offset=0x6000,size=264704
19:04:00 385	<LAYER 3-1-1> INFO:Start to download kernel,offset=0xe000,size=7622548
19:04:00 797	<LAYER 3-1-1> INFO:Start to download boot,offset=0x14000,size=1718404
19:04:00 889	<LAYER 3-1-1> INFO:Start to download recovery,offset=0x1a000,size=10207232
19:04:01 427	<LAYER 3-1-1> INFO:Start to download system,offset=0x94000,size=401620992
19:04:23 058	<LAYER 3-1-1> INFO:Start to check uboot,offset=0x2000,size=4194304
19:04:23 195	<LAYER 3-1-1> INFO:Start to check misc,offset=0x4000,size=49152
19:04:23 204	<LAYER 3-1-1> INFO:Start to check resource,offset=0x6000,size=264704
19:04:23 221	<LAYER 3-1-1> INFO:Start to check kernel,offset=0xe000,size=7622548
19:04:23 468	<LAYER 3-1-1> INFO:Start to check boot,offset=0x14000,size=1718404
19:04:23 530	<LAYER 3-1-1> INFO:Start to check recovery,offset=0x1a000,size=10207232
19:04:23 869	<LAYER 3-1-1> INFO:Start to check system,offset=0x94000,size=401620992
19:04:37 557	Layer<3-1-1>:下载固件成功
19:04:37 565	Layer<3-1-1>:重启设备开始
19:04:38 579	Layer<3-1-1>:重启设备成功
19:08:37 322	Layer<3-1-1>:测试设备开始
19:08:37 331	Layer<3-1-1>:测试设备成功
19:08:37 343	Layer<3-1-1>: Download resource...
19:08:37 383	Layer<3-1-1>: RunProc is ending, ret=1
19:10:57 279	Layer<3-1-1>:测试设备开始
19:10:57 283	Layer<3-1-1>:测试设备成功
19:10:57 619	Layer<3-1-1>: Download resource...
19:10:57 665	Layer<3-1-1>: RunProc is ending, ret=1
19:11:38 976	Layer<3-1-1>:测试设备开始
19:11:38 984	Layer<3-1-1>:测试设备成功
19:11:38 993	Layer<3-1-1>: Download resource...
19:11:39 035	Layer<3-1-1>: RunProc is ending, ret=1
