18:18:55 525	ERROR:Search_ADB-->CM_Get_Sibling failed(0xd)
18:18:55 782	ERROR:Search_ADB-->CM_Get_Sibling failed(0xd)
18:21:58 911	ERROR:Search_ADB-->CM_Get_Sibling failed(0xd)
18:37:24 581	ERROR:Search_ADB-->CM_Get_Sibling failed(0xd)
18:37:52 469	ERROR:Search_ADB-->CM_Get_Sibling failed(0xd)
18:38:04 737	ERROR:Search_ADB-->CM_Get_Sibling failed(0xd)
